5 Marriages in Pakistan | PSLM Stories
…
## [[1]]
## [1] "h1"
## 
## [[2]]
## median
## 
## [[3]]
## [1] "~"
## 
## [[4]]
## [1] "work1_income_last_year"
## 
## # A tibble: 1,046,386 x 11
## # Groups:   work1_occupation, region [32]
##    year        hhcode province region   idc work1_occupation    work1_industry  
##    <date>       <dbl> <fct>    <fct>  <dbl> <fct>               <fct>           
##  1 2004-01-01  1.00e9 Punjab   Urban      1 Service, shop , sa~ Social & person~
##  2 2004-01-01  1.00e9 Punjab   Urban      2 Service, shop , sa~ Social & person~
##  3 2004-01-01  1.00e9 Punjab   Urban      1 Service, shop , sa~ Social & person~
##  4 2004-01-01  1.00e9 Punjab   Urban      1 Professionals       Social & person~
##  5 2004-01-01  1.00e9 Punjab   Urban      1 Elementary occupat~ Social & person~
##  6 2004-01-01  1.00e9 Punjab   Urban      1 Professionals       Social & person~
##  7 2004-01-01  1.00e9 Punjab   Urban      8 Other               Social & person~
##  8 2004-01-01  1.00e9 Punjab   Urban      1 Other               Electricity     
##  9 2004-01-01  1.00e9 Punjab   Urban      3 Service, shop , sa~ Social & person~
## 10 2004-01-01  1.00e9 Punjab   Urban      1 Other               Social & person~
## # ... with 1,046,376 more rows, and 4 more variables:
## #   work1_income_last_month <dbl>, work1_months_worked_last_year <dbl>,
## #   work1_income_last_year <dbl>, work1_income_last_year.calc <dbl>
…
## [[1]]
## [1] "h1"
## 
## [[2]]
## median
## 
## [[3]]
## [1] "~"
## 
## [[4]]
## [1] "work1_income_last_year"
## 
## # A tibble: 1,046,461 x 11
## # Groups:   work1_industry, region [30]
##    year        hhcode province region   idc work1_occupation    work1_industry  
##    <date>       <dbl> <fct>    <fct>  <dbl> <fct>               <fct>           
##  1 2004-01-01  1.00e9 Punjab   Urban      1 Service, shop , sa~ Social & person~
##  2 2004-01-01  1.00e9 Punjab   Urban      2 Service, shop , sa~ Social & person~
##  3 2004-01-01  1.00e9 Punjab   Urban      1 Service, shop , sa~ Social & person~
##  4 2004-01-01  1.00e9 Punjab   Urban      1 Professionals       Social & person~
##  5 2004-01-01  1.00e9 Punjab   Urban      1 Elementary occupat~ Social & person~
##  6 2004-01-01  1.00e9 Punjab   Urban      1 Professionals       Social & person~
##  7 2004-01-01  1.00e9 Punjab   Urban      8 Senior officals / ~ Social & person~
##  8 2004-01-01  1.00e9 Punjab   Urban      1 Clerks              Other           
##  9 2004-01-01  1.00e9 Punjab   Urban      3 Service, shop , sa~ Social & person~
## 10 2004-01-01  1.00e9 Punjab   Urban      1 Clerks              Social & person~
## # ... with 1,046,451 more rows, and 4 more variables:
## #   work1_income_last_month <dbl>, work1_months_worked_last_year <dbl>,
## #   work1_income_last_year <dbl>, work1_income_last_year.calc <dbl>
…
